<?xml version="1.0" encoding="utf-8"?>
<!-- Generator: Adobe Illustrator 16.0.0, SVG Export Plug-In . SVG Version: 6.00 Build 0)  -->
<!DOCTYPE svg PUBLIC "-//W3C//DTD SVG 1.1//EN" "http://www.w3.org/Graphics/SVG/1.1/DTD/svg11.dtd">
<svg version="1.1" id="Ebene_1" xmlns="http://www.w3.org/2000/svg" xmlns:xlink="http://www.w3.org/1999/xlink" x="0px" y="0px"
	 width="595.279px" height="841.891px" viewBox="0 0 595.279 841.891" enable-background="new 0 0 595.279 841.891"
	 xml:space="preserve">
<g>
	<rect x="24.811" y="147.116" fill="#0564A8" width="547.658" height="547.657"/>
</g>
<path fill="#FFFFFF" d="M424.568,245.284c1.49,1.451,1.49,1.451,1.49,2.903V416.59c0,1.452,0,2.902-1.49,2.902
	c-1.489,1.452-1.489,1.452-2.979,1.452H193.662c-1.49,0-2.979,0-2.979-1.452c-1.489-1.452-1.489-1.452-1.489-2.902V248.187
	c0-1.452,0-2.903,1.489-2.903c1.488-1.452,1.488-1.452,2.979-1.452h227.929C421.591,243.832,423.08,245.284,424.568,245.284
	 M347.102,284.479l-72.996,71.134L251.76,333.84l-46.181,45.004v26.131H406.69V342.55L347.102,284.479z M233.885,262.705
	c-7.448,0-13.405,2.903-19.366,7.259c-5.957,5.807-7.445,11.615-7.445,18.871c0,7.26,2.979,13.066,7.445,18.873
	c5.961,5.807,11.919,7.259,19.366,7.259c7.449,0,13.407-2.904,19.366-7.259c5.959-5.807,7.448-11.613,7.448-18.873
	c0-7.256-2.979-13.064-7.448-18.871C247.292,264.156,241.334,262.705,233.885,262.705"/>
<path fill="#FFFFFF" stroke="#FFFFFF" stroke-miterlimit="10" d="M416.126,481.688c0,6.627-5.373,12-12,12h-193
	c-6.627,0-12-5.373-12-12v-6c0-6.627,5.373-12,12-12h193c6.627,0,12,5.373,12,12V481.688z"/>
<path fill="#FFFFFF" stroke="#FFFFFF" stroke-miterlimit="10" d="M416.126,528.945c0,6.628-5.373,12-12,12h-193
	c-6.627,0-12-5.372-12-12v-6c0-6.627,5.373-12,12-12h193c6.627,0,12,5.373,12,12V528.945z"/>
<path fill="#FFFFFF" stroke="#FFFFFF" stroke-miterlimit="10" d="M416.126,578.688c0,6.629-5.373,12-12,12h-193
	c-6.627,0-12-5.371-12-12v-6c0-6.628,5.373-12,12-12h193c6.627,0,12,5.372,12,12V578.688z"/>
<path fill="#FFFFFF" stroke="#FFFFFF" stroke-miterlimit="10" d="M416.126,628.803c0,6.628-5.373,12-12,12h-193
	c-6.627,0-12-5.372-12-12v-6c0-6.627,5.373-12,12-12h193c6.627,0,12,5.373,12,12V628.803z"/>
</svg>
